Spatial Analysis and Statistical Modeling with R and spmodel - 3 Spatial Generalized Linear Models in spmodel
…
We can also make predictions of the mean function at unobserved locations. For example, we can use poismod to predict the mean number of moose (on the link scale) at the spatial locations in moose_preds using predict() by running:

# results omitted
predict(poismod, newdata = moose_preds)

We can also use augment():

augment(poismod, newdata = moose_preds)
#> Simple feature collection with 100 features and 3 fields
#> Geometry type: POINT
#> Dimension:     XY
#> Bounding box:  xmin: 269386.2 ymin: 1418453 xmax: 419976.2 ymax: 1541763
#> Projected CRS: NAD83 / Alaska Albers
#> # A tibble: 100 × 4
#>     elev strat .fitted           geometry
#>  * <dbl> <chr>   <dbl>        <POINT [m]>
#>  1  143. L      0.207  (401239.6 1436192)
#>  2  324. L     -0.0563 (352640.6 1490695)
#>  3  158. L     -1.24   (360954.9 1491590)
#>  4  221. M     -1.16   (291839.8 1466091)
#>  5  209. M      1.78   (310991.9 1441630)
#>  6  218. L     -1.84   (304473.8 1512103)
#>  7  127. L     -2.80   (339011.1 1459318)
#>  8  122. L     -2.45   (342827.3 1463452)
#>  9  191  L     -0.409  (284453.8 1502837)
#> 10  105. L     -1.10   (391343.9 1483791)
#> # ℹ 90 more rows
…
Exercise

Use spglm() to fit a spatial logistic regression model to the moose data using presence as the response variable and a Cauchy covariance function. Then, find the predicted probabilities that moose are present at the spatial locations in moose_preds (Hint: Use the type argument in predict() or augment()).

Exercise Solution

binmod <- spglm(presence ~ elev * strat, data = moose,
               family = binomial, spcov_type = "cauchy")
augment(binmod, newdata = moose_preds, type = "response")
#> Simple feature collection with 100 features and 3 fields
#> Geometry type: POINT
#> Dimension:     XY
#> Bounding box:  xmin: 269386.2 ymin: 1418453 xmax: 419976.2 ymax: 1541763
#> Projected CRS: NAD83 / Alaska Albers
#> # A tibble: 100 × 4
#>     elev strat .fitted           geometry
#>  * <dbl> <chr>   <dbl>        <POINT [m]>
#>  1  143. L      0.489  (401239.6 1436192)
#>  2  324. L      0.376  (352640.6 1490695)
#>  3  158. L      0.0945 (360954.9 1491590)
#>  4  221. M      0.229  (291839.8 1466091)
#>  5  209. M      0.804  (310991.9 1441630)
#>  6  218. L      0.0411 (304473.8 1512103)
#>  7  127. L      0.0234 (339011.1 1459318)
#>  8  122. L      0.0432 (342827.3 1463452)
#>  9  191  L      0.391  (284453.8 1502837)
#> 10  105. L      0.197  (391343.9 1483791)
#> # ℹ 90 more rows
…
