Spatial Analysis and Statistical Modeling with R and spmodel - 1 Spatial Linear Models in spmodel
…
The form of the spatial linear model (\(\mathbf{y} = \mathbf{X} \boldsymbol{\beta} + \boldsymbol{\tau} + \boldsymbol{\epsilon}\)) is the same in the Help file as the form in Equation Equation 1.4. In the help file, \(de\) refers to \(\sigma^2_{de}\), \(ie\) refers to \(\sigma^2_{ie}\), and \(range\) refers to \(\phi\). Finally, in the help file \(h\) refers to distance between observations while, in Equation 1.5, \(\mathbf{H}\) refers to a matrix of these distances for all pairs of observations.

1.2 Model Fitting

1.2.1 Data Introduction

The moss data in the spmodel package is an sf (simple features) object (Pebesma 2018) that contains observations on heavy metals in mosses near a mining road in Alaska. An sf object is a special data.frame built for storing spatial information and contains a column called geometry. We can view the first few rows of moss by running

moss
#> Simple feature collection with 365 features and 7 fields
#> Geometry type: POINT
#> Dimension:     XY
#> Bounding box:  xmin: -445884.1 ymin: 1929616 xmax: -383656.8 ymax: 2061414
#> Projected CRS: NAD83 / Alaska Albers
#> # A tibble: 365 × 8
#>    sample field_dup lab_rep year  sideroad log_dist2road log_Zn
#>    <fct>  <fct>     <fct>   <fct> <fct>            <dbl>  <dbl>
#>  1 001PR  1         1       2001  N                 2.68   7.33
#>  2 001PR  1         2       2001  N                 2.68   7.38
#>  3 002PR  1         1       2001  N                 2.54   7.58
#>  4 003PR  1         1       2001  N                 2.97   7.63
#>  5 004PR  1         1       2001  N                 2.72   7.26
#>  6 005PR  1         1       2001  N                 2.76   7.65
#>  7 006PR  1         1       2001  S                 2.30   7.59
#>  8 007PR  1         1       2001  N                 2.78   7.16
#>  9 008PR  1         1       2001  N                 2.93   7.19
#> 10 009PR  1         1       2001  N                 2.79   8.07
#> # ℹ 355 more rows
#> # ℹ 1 more variable: geometry <POINT [m]>
…
The output from glance() shows model fit statistics for the spatial linear model with an exponential covariance structure for the errors.

The augment() function provides many model diagnostics statistics in a single tibble:

augment(spmod)
#> Simple feature collection with 365 features and 7 fields
#> Geometry type: POINT
#> Dimension:     XY
#> Bounding box:  xmin: -445884.1 ymin: 1929616 xmax: -383656.8 ymax: 2061414
#> Projected CRS: NAD83 / Alaska Albers
#> # A tibble: 365 × 8
#>    log_Zn log_dist2road .fitted .resid   .hat .cooksd .std.resid
#>  *  <dbl>         <dbl>   <dbl>  <dbl>  <dbl>   <dbl>      <dbl>
#>  1   7.33          2.68    8.26 -0.928 0.0200 0.0142       1.18 
#>  2   7.38          2.68    8.26 -0.880 0.0200 0.0186       1.35 
#>  3   7.58          2.54    8.34 -0.755 0.0225 0.00482      0.647
#>  4   7.63          2.97    8.09 -0.464 0.0197 0.0305       1.74 
#>  5   7.26          2.72    8.24 -0.977 0.0215 0.131        3.45 
#>  6   7.65          2.76    8.21 -0.568 0.0284 0.0521       1.89 
#>  7   7.59          2.30    8.47 -0.886 0.0300 0.0591       1.96 
#>  8   7.16          2.78    8.20 -1.05  0.0335 0.00334      0.439
#>  9   7.19          2.93    8.12 -0.926 0.0378 0.0309       1.26 
#> 10   8.07          2.79    8.20 -0.123 0.0314 0.00847      0.723
#> # ℹ 355 more rows
#> # ℹ 1 more variable: geometry <POINT [m]>
…
Note

Examining some of the predictions, we see that a few are negative. These unreasonable negative values are a further indication that we should use a spatial generalized linear model in Chapter 3.

The augment() function can also be used to obtain predictions for unobserved locations. While the required arguments to augment() are the same as the arguments used in predict() (the name of the fitted model object along with a newdata data frame), the output of augment() is an sf object with predictions in the .fitted column. Often, using augment() is more convenient than using predict(), as augment() returns an object with predictions alongside the spatial locations and any predictors used in the model.

moose_aug <- augment(moosemod, newdata = moose_preds)
moose_aug
#> Simple feature collection with 100 features and 3 fields
#> Geometry type: POINT
#> Dimension:     XY
#> Bounding box:  xmin: 269386.2 ymin: 1418453 xmax: 419976.2 ymax: 1541763
#> Projected CRS: NAD83 / Alaska Albers
#> # A tibble: 100 × 4
#>     elev strat .fitted           geometry
#>  * <dbl> <chr>   <dbl>        <POINT [m]>
#>  1  143. L       3.45  (401239.6 1436192)
#>  2  324. L       1.59  (352640.6 1490695)
#>  3  158. L      -0.267 (360954.9 1491590)
#>  4  221. M       2.39  (291839.8 1466091)
#>  5  209. M       7.62  (310991.9 1441630)
#>  6  218. L      -1.02  (304473.8 1512103)
#>  7  127. L      -1.23  (339011.1 1459318)
#>  8  122. L      -1.43  (342827.3 1463452)
#>  9  191  L      -0.239 (284453.8 1502837)
#> 10  105. L       0.657 (391343.9 1483791)
#> # ℹ 90 more rows
…
Exercise

Examine the help file ?augment.spmodel or by visiting this link and create site-wise 99% prediction intervals for the unsampled locations found in moose_preds.

Solution

augment(moosemod, newdata = moose_preds, interval = "prediction",
        level = 0.99)
#> Simple feature collection with 100 features and 5 fields
#> Geometry type: POINT
#> Dimension:     XY
#> Bounding box:  xmin: 269386.2 ymin: 1418453 xmax: 419976.2 ymax: 1541763
#> Projected CRS: NAD83 / Alaska Albers
#> # A tibble: 100 × 6
#>     elev strat .fitted .lower .upper           geometry
#>  * <dbl> <chr>   <dbl>  <dbl>  <dbl>        <POINT [m]>
#>  1  143. L       3.45  -11.1    18.0 (401239.6 1436192)
#>  2  324. L       1.59  -13.4    16.5 (352640.6 1490695)
#>  3  158. L      -0.267 -15.1    14.5 (360954.9 1491590)
#>  4  221. M       2.39  -12.2    17.0 (291839.8 1466091)
#>  5  209. M       7.62   -6.99   22.2 (310991.9 1441630)
#>  6  218. L      -1.02  -15.9    13.9 (304473.8 1512103)
#>  7  127. L      -1.23  -15.9    13.5 (339011.1 1459318)
#>  8  122. L      -1.43  -16.1    13.3 (342827.3 1463452)
#>  9  191  L      -0.239 -15.2    14.8 (284453.8 1502837)
#> 10  105. L       0.657 -14.0    15.3 (391343.9 1483791)
#> # ℹ 90 more rows
…
