Spatial Analysis and Statistical Modeling with R and spmodel - 2 Additional spmodel Features
…
2.2.2 Non-Spatial Random Effects

In the moss data, there are actually some spatial locations that have more than one measurement due to multiple samples being collected at a single location or due to a single sample being tested multiple times in the laboratory. The sample variable indexes the spatial location:

moss
#> Simple feature collection with 365 features and 7 fields
#> Geometry type: POINT
#> Dimension:     XY
#> Bounding box:  xmin: -445884.1 ymin: 1929616 xmax: -383656.8 ymax: 2061414
#> Projected CRS: NAD83 / Alaska Albers
#> # A tibble: 365 × 8
#>    sample field_dup lab_rep year  sideroad log_dist2road log_Zn
#>    <fct>  <fct>     <fct>   <fct> <fct>            <dbl>  <dbl>
#>  1 001PR  1         1       2001  N                 2.68   7.33
#>  2 001PR  1         2       2001  N                 2.68   7.38
#>  3 002PR  1         1       2001  N                 2.54   7.58
#>  4 003PR  1         1       2001  N                 2.97   7.63
#>  5 004PR  1         1       2001  N                 2.72   7.26
#>  6 005PR  1         1       2001  N                 2.76   7.65
#>  7 006PR  1         1       2001  S                 2.30   7.59
#>  8 007PR  1         1       2001  N                 2.78   7.16
#>  9 008PR  1         1       2001  N                 2.93   7.19
#> 10 009PR  1         1       2001  N                 2.79   8.07
#> # ℹ 355 more rows
#> # ℹ 1 more variable: geometry <POINT [m]>
…
For areal data, we can obtain predictions for unobserved polygons using predict() on the fitted model object or augment() on the fitted model object, specifying the newdata argument to be mod$newdata. Both approaches are given below:

sealmod <- spautor(log_trend ~ 1, data = seal, spcov_type = "car")
summary(sealmod)

predict(sealmod)

augment(sealmod, newdata = sealmod$newdata)
#> Simple feature collection with 28 features and 2 fields
#> Geometry type: POLYGON
#> Dimension:     XY
#> Bounding box:  xmin: 913618.8 ymin: 1007542 xmax: 1115097 ymax: 1132682
#> Projected CRS: NAD83 / Alaska Albers
#> # A tibble: 28 × 3
#>    log_trend  .fitted                                                geometry
#>  *     <dbl>    <dbl>                                           <POLYGON [m]>
#>  1        NA -0.115   ((1035002 1054710, 1035002 1054542, 1035002 1053542, 1…
#>  2        NA -0.00908 ((1043093 1020553, 1043097 1020550, 1043101 1020550, 1…
#>  3        NA -0.0602  ((1099737 1054310, 1099752 1054262, 1099788 1054278, 1…
#>  4        NA -0.0359  ((1099002 1036542, 1099134 1036462, 1099139 1036431, 1…
#>  5        NA -0.0723  ((1076902 1053189, 1076912 1053179, 1076931 1053179, 1…
#>  6        NA -0.0548  ((1070501 1046969, 1070317 1046598, 1070308 1046542, 1…
#>  7        NA -0.0976  ((1072995 1054942, 1072996 1054910, 1072997 1054878, 1…
#>  8        NA -0.0714  ((960001.5 1127667, 960110.8 1127542, 960144.1 1127495…
#>  9        NA -0.0825  ((1031308 1079817, 1031293 1079754, 1031289 1079741, 1…
#> 10        NA -0.0592  ((998923.7 1053647, 998922.5 1053609, 998950 1053631, …
#> # ℹ 18 more rows
…
